[gd_scene load_steps=3 format=2]

[ext_resource path="res://fonts/Zorque_80.tres" type="DynamicFont" id=1]
[ext_resource path="res://LabelZombieCounter.gd" type="Script" id=2]

[node name="Node2D" type="Node2D"]

[node name="MarginContainer" type="MarginContainer" parent="."]
margin_right = 40.0
margin_bottom = 40.0

[node name="Label" type="Label" parent="MarginContainer"]
margin_right = 40.0
margin_bottom = 97.0
custom_fonts/font = ExtResource( 1 )
script = ExtResource( 2 )
