[gd_scene load_steps=2 format=2]

[ext_resource path="res://fonts/Zorque_80.tres" type="DynamicFont" id=1]

[node name="MenuButton" type="Button"]
margin_right = 1040.0
margin_bottom = 20.0
rect_min_size = Vector2( 360, 60 )
flat = true

[node name="Label" type="Label" parent="."]
anchor_right = 1.0
anchor_bottom = 1.0
rect_scale = Vector2( 1.00258, 0.994589 )
custom_fonts/font = ExtResource( 1 )
custom_colors/font_color_shadow = Color( 0.454902, 0.843137, 0.360784, 1 )
custom_constants/shadow_offset_x = 1
custom_constants/shadow_offset_y = 5
