[gd_scene load_steps=2 format=2]

[sub_resource type="Animation" id=1]
resource_name = "FadeIn"
length = 0.5
tracks/0/type = "value"
tracks/0/path = NodePath(".:color")
tracks/0/interp = 1
tracks/0/loop_wrap = true
tracks/0/imported = false
tracks/0/enabled = true
tracks/0/keys = {
"times": PoolRealArray( 0 ),
"transitions": PoolRealArray( 1 ),
"update": 0,
"values": [ Color( 0, 0, 0, 1 ) ]
}
tracks/1/type = "value"
tracks/1/path = NodePath("..:color")
tracks/1/interp = 1
tracks/1/loop_wrap = true
tracks/1/imported = false
tracks/1/enabled = true
tracks/1/keys = {
"times": PoolRealArray( -0.1, 0.5 ),
"transitions": PoolRealArray( 1, 1 ),
"update": 0,
"values": [ Color( 0, 0, 0, 0 ), Color( 0, 0, 0, 1 ) ]
}

[node name="FadeIn" type="ColorRect"]
anchor_right = 1.0
anchor_bottom = 1.0
color = Color( 0, 0, 0, 0.166667 )

[node name="AnimationPlayer" type="AnimationPlayer" parent="."]
root_node = NodePath("")
anims/FadeIn = SubResource( 1 )
